…
To actually appreciate the power of `summarise()`, we need to introduce the other major basic verb in `"dplyr"`: `group_by()`. This is the function that allows you to do perform data aggregations, or *grouped operations*.

Let's see the combination of `summarise()` and `group_by()` to calculate the average salary by team:

``` r
# average salary, grouped by team
summarise(
  group_by(dat, team),
  avg_salary = mean(salary)
)
```

    ## # A tibble: 30 x 2
    ##     team avg_salary
    ##    <chr>      <dbl>
    ##  1   ATL    6491892
    ##  2   BOS    6127673
    ##  3   BRK    4363414
    ##  4   CHI    6138459
    ##  5   CHO    6683086
    ##  6   CLE    8386014
    ##  7   DAL    6139880
    ##  8   DEN    5225533
    ##  9   DET    6871594
    ## 10   GSW    6579394
    ## # ... with 20 more rows
…
    ##   max
    ## 1  87

``` r
summarize(dat, sd= sd(points3)) 
```

    ##        sd
    ## 1 55.9721

``` r
summarize(group_by(dat, team), med= median(points3))
```

    ## # A tibble: 30 x 2
    ##     team   med
    ##    <chr> <dbl>
    ##  1   ATL  32.5
    ##  2   BOS  46.0
    ##  3   BRK  44.0
    ##  4   CHI  32.0
    ##  5   CHO  17.0
    ##  6   CLE  62.0
    ##  7   DAL  53.0
    ##  8   DEN  53.0
    ##  9   DET  28.0
    ## 10   GSW  18.0
    ## # ... with 20 more rows
…
